{
"globalDependencies": {
"core-js": "registry:dt/core-js#0.0.0+20160914114559",
"jasmine": "registry:dt/jasmine#2.5.0+20161025102649",
"socket.io-client": "registry:dt/socket.io-client#1.4.4+20160317120654",
"node": "registry:dt/node#6.0.0+20161102143327"
}
}